%YAML 1.1
%TAG !u! tag:unity3d.com,2011:
--- !u!1001 &100100000
Prefab:
  m_ObjectHideFlags: 1
  serializedVersion: 2
  m_Modification:
    m_TransformParent: {fileID: 0}
    m_Modifications: []
    m_RemovedComponents: []
  m_SourcePrefab: {fileID: 0}
  m_RootGameObject: {fileID: 1808861711995436}
  m_IsPrefabAsset: 1
--- !u!1 &1808861711995436
GameObject:
  m_ObjectHideFlags: 0
  m_CorrespondingSourceObject: {fileID: 0}
  m_PrefabInternal: {fileID: 100100000}
  serializedVersion: 6
  m_Component:
  - component: {fileID: 4055691155568956}
  - component: {fileID: 114570479420950772}
  m_Layer: 0
  m_Name: AudioManager
  m_TagString: Untagged
  m_Icon: {fileID: 0}
  m_NavMeshLayer: 0
  m_StaticEditorFlags: 0
  m_IsActive: 1
--- !u!4 &4055691155568956
Transform:
  m_ObjectHideFlags: 1
  m_CorrespondingSourceObject: {fileID: 0}
  m_PrefabInternal: {fileID: 100100000}
  m_GameObject: {fileID: 1808861711995436}
  m_LocalRotation: {x: 0, y: 0, z: 0, w: 1}
  m_LocalPosition: {x: 0, y: 1, z: 90}
  m_LocalScale: {x: 1, y: 1, z: 1}
  m_Children: []
  m_Father: {fileID: 0}
  m_RootOrder: 0
  m_LocalEulerAnglesHint: {x: 0, y: 0, z: 0}
--- !u!114 &114570479420950772
MonoBehaviour:
  m_ObjectHideFlags: 1
  m_CorrespondingSourceObject: {fileID: 0}
  m_PrefabInternal: {fileID: 100100000}
  m_GameObject: {fileID: 1808861711995436}
  m_Enabled: 1
  m_EditorHideFlags: 0
  m_Script: {fileID: 11500000, guid: 7d11db03c4b940e46a478b0d4c640f90, type: 3}
  m_Name: 
  m_EditorClassIdentifier: 
  sounds:
  - name: Footstep
    clip: {fileID: 8300000, guid: 74897223a8115fa40addcaf3c2ac95b0, type: 3}
    volume: 0.5
    source: {fileID: 0}
    loop: 0
  - name: WaterStep
    clip: {fileID: 8300000, guid: e98ff836dca3d5e488e3b5863d26bbf5, type: 3}
    volume: 0.5
    source: {fileID: 0}
    loop: 0
  - name: DuckGet
    clip: {fileID: 8300000, guid: 8e77cef07fed2f841a37254d43f8266f, type: 3}
    volume: 0.6
    source: {fileID: 0}
    loop: 0
  - name: Land
    clip: {fileID: 8300000, guid: 6bde4bec452297940b7d09737824b2f8, type: 3}
    volume: 0.777
    source: {fileID: 0}
    loop: 0
  - name: WaterLand
    clip: {fileID: 8300000, guid: e3f4fb55e7d41934b959899e20478d9f, type: 3}
    volume: 0.5
    source: {fileID: 0}
    loop: 0
  - name: ColourChange
    clip: {fileID: 8300000, guid: 68854c624cc773e468f23fe26eb2ed38, type: 3}
    volume: 1
    source: {fileID: 0}
    loop: 0
  - name: FallingWater
    clip: {fileID: 8300000, guid: 73f557aaaa7e2b749b712ec531cb1166, type: 3}
    volume: 0.402
    source: {fileID: 0}
    loop: 1
  - name: MainTheme
    clip: {fileID: 8300000, guid: c28f861bf769a7b47b38ef6ea92e6dce, type: 3}
    volume: 0.295
    source: {fileID: 0}
    loop: 1
  - name: BlockPush
    clip: {fileID: 8300000, guid: d7a28311bdcd1cb439c31c43ad8be57a, type: 3}
    volume: 0.493
    source: {fileID: 0}
    loop: 0
  - name: BlockColourChange
    clip: {fileID: 8300000, guid: 56b76378b1bbdac42a2c38b44fa257c9, type: 3}
    volume: 0.543
    source: {fileID: 0}
    loop: 0
  - name: ElevatorOpen
    clip: {fileID: 8300000, guid: 5d96cca6d1e867a4aaa40447be8bc349, type: 3}
    volume: 0.295
    source: {fileID: 0}
    loop: 0
  - name: InkShoot
    clip: {fileID: 8300000, guid: 0d28286d6cf500b41b6479c2c77a23e6, type: 3}
    volume: 0.295
    source: {fileID: 0}
    loop: 0
  - name: Jump
    clip: {fileID: 8300000, guid: 0ddf81e67eac5374fa0015bdc98c0c8c, type: 3}
    volume: 1
    source: {fileID: 0}
    loop: 0
  - name: LevelComplete
    clip: {fileID: 8300000, guid: a9bebc18e03d26d45bbde3d37341afc7, type: 3}
    volume: 0.5
    source: {fileID: 0}
    loop: 0
  - name: EnterPause
    clip: {fileID: 8300000, guid: 615682add4608c0499e5f05f1507bc92, type: 3}
    volume: 0.294
    source: {fileID: 0}
    loop: 0
  - name: ExitPause
    clip: {fileID: 8300000, guid: 1f13b3e6e82add6408021d2004522e6b, type: 3}
    volume: 0.295
    source: {fileID: 0}
    loop: 0
